[{
"@context": "http://schema.org",
"@type": "VideoObject",
"name": "What is a School Psychologist? | Duties and Responsibilities | PCOM",
"description": "Learn More About School Psychology at PCOM: https://bit.ly/2PM26Dh What is a school psychologist and what does a school psychologist do? Learn about the role school psychologists play in developing safe and supportive learning environments.School Psychology Programs at PCOM:School Psychology MS: https://bit.ly/2PWPkBQ School Psychology EdS: https://bit.ly/2PZyG4M School Psychology PsyD: https://bit.ly/2PZeWxQ Learn More About PCOM: PCOM: https://www.pcom.edu/ Facebook: https://www.facebook.com/PCOMeducation/ Twitter: https://twitter.com/pcomeducation Instagram: https://instagram.com/pcomeducation/ YouTube: https://www.youtube.com/user/PCOMeduc...Linkedin: https://www.linkedin.com/edu/school?i...issuu: https://issuu.com/pcomeducation",
"thumbnailUrl": "https://i.ytimg.com/vi/XIp2WSXHs_w/maxresdefault.jpg",
"uploadDate": "2020-02-21",
"duration": "PT3M11S",
"embedUrl": "https://www.youtube.com/embed/XIp2WSXHs_w",
"loc": "https://www.pcom.edu/academics/programs-and-degrees/school-psychology/"
}, {
"@context": "http://schema.org",
"@type": "VideoObject",
"name": "Welcome to PCOM",
"description": "Learn more about PCOM: http://bit.ly/2PWn2aO Want to know what PCOM is all about? Our students and PCOM President and CEO Jay S. Feldstein, DO '81, talk about the many benefits of a PCOM education. As a student at PCOM, you will enjoy a rich, century-old tradition of educational excellence on a vibrant campus featuring state-of-the-art teaching facilities, a dynamic academic community and a highly collaborative learning environment.Learn More About PCOM: PCOM: https://www.pcom.edu/ Facebook: https://www.facebook.com/PCOMeducation/ Twitter: https://twitter.com/pcomeducation Instagram: https://instagram.com/pcomeducation/ YouTube: https://www.youtube.com/user/PCOMeduc...Linkedin: https://www.linkedin.com/edu/school?i...issuu: https://issuu.com/pcomeducation",
"thumbnailUrl": "https://i.ytimg.com/vi/9ouf6pcNXBc/maxresdefault.jpg",
"uploadDate": "2015-10-29",
"duration": "PT1M27S",
"embedUrl": "https://www.youtube.com/embed/9ouf6pcNXBc",
"loc": "https://www.pcom.edu/brand/"
}, {
"@context": "http://schema.org",
"@type": "VideoObject",
"name": "Welcome to PCOM Georgia",
"description": "Learn more about PCOM Georgia: http://bit.ly/2PSGVPW Want to get to know PCOM's Georgia Campus? Our students, PCOM President and CEO Jay S. Feldstein, DO '81, and PCOM Georgia Chief Campus Officer R. Bryan Ginn Jr. discus what our academic programs have to offer. PCOM Georgia is a private, not-for-profit branch campus of the fully accredited Philadelphia College of Osteopathic Medicine, a multi-program institution with a more than century-old tradition of educational excellence.Learn More About PCOM: PCOM: https://www.pcom.edu/ Facebook: https://www.facebook.com/PCOMeducation/ Twitter: https://twitter.com/pcomeducation Instagram: https://instagram.com/pcomeducation/ YouTube: https://www.youtube.com/user/PCOMeduc...Linkedin: https://www.linkedin.com/edu/school?i...issuu: https://issuu.com/pcomeducation",
"thumbnailUrl": "https://i.ytimg.com/vi/E_pgbIoxSbY/maxresdefault.jpg",
"uploadDate": "2015-10-29",
"duration": "PT1M6S",
"embedUrl": "https://www.youtube.com/embed/E_pgbIoxSbY",
"loc": "https://www.pcom.edu/brand/"
}, {
"@context": "http://schema.org",
"@type": "VideoObject",
"name": "Kim Arena (MS/ODL ’18)",
"description": "A summer job at a mental health center ignited Kim Arena's (MS/ODL ’18) awareness of social justice issues. That experience along with a job fundraising for women's rights, helped Kim see the unique and complex role nonprofits working toward social change play and inspired her to pursue a master’s degree in Organizational Development and Leadership to deepen her influence in the nonprofit sector.As a student in the Organizational Development and Leadership (ODL) program at Philadelphia College of Osteopathic Medicine, you will learn how to leverage yourself to deliver results across your organization. Learn how we can teach you to understand the dynamics of your organization and become an effective leader: http://www.pcom.edu/academics/program...",
"thumbnailUrl": "https://i.ytimg.com/vi/wn175M_ryCM/maxresdefault.jpg",
"uploadDate": "2017-02-28",
"duration": "PT0M58S",
"embedUrl": "https://www.youtube.com/embed/wn175M_ryCM",
"loc": "https://www.pcom.edu/admissions/student-stories/kim-arena.html"
}, {
"@context": "http://schema.org",
"@type": "VideoObject",
"name": "Reggie Candio (PsyD '18) | Student Stories | PCOM",
"description": "Learn More About Our School Psychology Program at PCOM: http://bit.ly/2whqzHI Learn More about Non-Traditional Students at PCOM: http://bit.ly/2wcouww Providing a higher level of support, services and advocacy for individuals on the Autism spectrum is what inspires Reggie Candio (PsyD '18) to pursue a career as a School Psychologist.A degree in school psychology from PCOM can put you on the track to helping others in a variety of ways. Interested in a career helping children and adolescents with behavioral problems and also helping with their overall health development? At PCOM you can learn from our nationally recognized faculty in a hands-on learning environment.Learn More About PCOM: PCOM: https://www.pcom.edu/ Facebook: https://www.facebook.com/PCOMeducation/ Twitter: https://twitter.com/pcomeducation Instagram: https://instagram.com/pcomeducation/ YouTube: https://www.youtube.com/user/PCOMeduc...Linkedin: https://www.linkedin.com/edu/school?i...issuu: https://issuu.com/pcomeducation",
"thumbnailUrl": "https://i.ytimg.com/vi/92iAYxz6XfI/hqdefault.jpg",
"uploadDate": "2017-06-13",
"duration": "PT1M20S",
"embedUrl": "https://www.youtube.com/embed/92iAYxz6XfI",
"loc": "https://www.pcom.edu/admissions/student-stories/reggie-candio.html"
}, {
"@context": "http://schema.org",
"@type": "VideoObject",
"name": "What is Evolutionary and Developmental Biology? | PCOM",
"description": "Learn More About Evolutionary Development and Organismal Evolution at PCOM: http://bit.ly/2HOOHYRLearn from Philip Reno, PhD, associate professor, biomedical sciences, about evolutionary biology and its role in medical education.Learn More About PCOM: PCOM: https://www.pcom.edu/ Facebook: https://www.facebook.com/PCOMeducation/ Twitter: https://twitter.com/pcomeducation Instagram: https://instagram.com/pcomeducation/ YouTube: https://www.youtube.com/user/PCOMeduc...Linkedin: https://www.linkedin.com/edu/school?i...issuu: https://issuu.com/pcomeducation",
"thumbnailUrl": "https://i.ytimg.com/vi/apWVLw7spgg/maxresdefault.jpg",
"uploadDate": "2018-10-02",
"duration": "PT1M4S",
"embedUrl": "https://www.youtube.com/embed/apWVLw7spgg",
"loc": "https://www.pcom.edu/research/research-areas/biology.html"
}, {
"@context": "http://schema.org",
"@type": "VideoObject",
"name": "PCOM Celebrates Match Day 2019",
"description": "Learn More About Match Day 2019 at PCOM: http://bit.ly/2HMcad5 For the first time ever, PCOM held a Match Day celebration here on campus, hosted and coordinated by the DO Class of 2019. PCOM Alumni Association also hosted their annual Match celebration at Lucky Strike, celebrating the DO class of 2019 and the PsyD class of 2020. Congratulations to all those who matched!Learn More About PCOM: PCOM: https://www.pcom.edu/ Facebook: https://www.facebook.com/PCOMeducation/ Twitter: https://twitter.com/pcomeducation Instagram: https://instagram.com/pcomeducation/ YouTube: https://www.youtube.com/user/PCOMeduc...Linkedin: https://www.linkedin.com/edu/school?i...issuu: https://issuu.com/pcomeducation",
"thumbnailUrl": "https://i.ytimg.com/vi/IqZuBSep9sc/hqdefault.jpg",
"uploadDate": "2019-03-19",
"duration": "PT1M26S",
"embedUrl": "https://www.youtube.com/embed/IqZuBSep9sc",
"loc": "https://www.pcom.edu/campuses/philadelphia-campus/news-and-events/pcom-news/match-day-2019-recognized-with-first-on-campus-event.html"
}, {
"@context": "http://schema.org",
"@type": "VideoObject",
"name": "Alzheimer's Disease and Infection Research | PCOM",
"description": "Learn More About Alzheimer's Disease Research at PCOM: http://bit.ly/2HJvMOR Brian J. Balin, PhD, Chair, Department of Biomedical Sciences, discusses the topics of Alzheimer's disease and infection.Learn More About PCOM: PCOM: https://www.pcom.edu/ Facebook: https://www.facebook.com/PCOMeducation/ Twitter: https://twitter.com/pcomeducation Instagram: https://instagram.com/pcomeducation/ YouTube: https://www.youtube.com/user/PCOMeduc...Linkedin: https://www.linkedin.com/edu/school?i...issuu: https://issuu.com/pcomeducation",
"thumbnailUrl": "https://i.ytimg.com/vi/bJICIiqLxgk/hqdefault.jpg",
"uploadDate": "2016-07-07",
"duration": "PT1M20S",
"embedUrl": "https://www.youtube.com/embed/bJICIiqLxgk",
"loc": "https://www.pcom.edu/academics/faculty/brianba.html"
}, {
	"@context": "http://schema.org",
	"@type": "VideoObject",
	"name": "Anna Cauthen (MS/PA '18) | Student Stories | PCOM",
	"description": "Learn About PA Studies at PCOM: http://bit.ly/2whbwgYMore PCOM Student Stories: http://bit.ly/2wifkhXGrowing up, Anna Cauthen (MS/PA ’18) watched her cousin battle a serious illness. During that difficult time, she was inspired by the medical professionals who helped treat her cousin. Now in the Physician Assistant Studies Program at PCOM Georgia, Anna finds a sense of community as she prepares to be the kind of compassionate healthcare provider that inspired her when she was younger.Our Physician Assistant Studies program provides a comprehensive academic and clinical medical education to prepare students for their professional roles as PAs. Learn more: http://www.pcom.edu/academics/program...PCOM: https://www.pcom.edu/ Facebook: https://www.facebook.com/PCOMeducation/ Twitter: https://twitter.com/pcomeducation Instagram: https://instagram.com/pcomeducation/ YouTube: https://www.youtube.com/user/PCOMeduc...Linkedin: https://www.linkedin.com/edu/school?i...issuu: https://issuu.com/pcomeducation",
	"thumbnailUrl": "https://i.ytimg.com/vi/woOR3cQVquk/maxresdefault.jpg",
	"uploadDate": "2017-03-27",
	"duration": "PT0M55S",
	"embedUrl": "https://www.youtube.com/embed/woOR3cQVquk",
	"loc": "https://www.pcom.edu/admissions/student-stories/anna-cauthen.html"
}, {
	"@context": "http://schema.org",
	"@type": "VideoObject",
	"name": "Osteopathic Medicine at GA-PCOM",
	"description": "Donald Kingsley (DO '18) describes what it means to pursue an education in osteopathic medicine at Georgia Campus – Philadelphia College of Osteopathic Medicine (GA-PCOM) by looking beyond the symptoms and treating the whole person.Since 2005, Georgia Campus - Philadelphia College of Osteopathic Medicine (GA-PCOM) has trained Doctor of Osteopathic Medicine (DO) students from Georgia and the surrounding states. Learn more about our comprehensive and contemporary curriculum designed to provide students with the knowledge and skills needed to succeed in an ever-changing healthcare environment: http://www.pcom.edu/academics/program...",
	"thumbnailUrl": "https://i.ytimg.com/vi/tlNXxzyjk64/maxresdefault.jpg",
	"uploadDate": "2015-10-27",
	"duration": "PT0M31S",
	"embedUrl": "https://www.youtube.com/embed/tlNXxzyjk64",
	"loc": "https://www.pcom.edu/admissions/student-stories/donald-kingsley.html"
}, {
  "@context": "http://schema.org",
  "@type": "VideoObject",
  "name": "Jason Coleman (PsyD '19) | Student Stories | PCOM",
  "description": "Learn More About Our Clinical PsyD Program at PCOM: https://bit.ly/2wXzcHL Working with under served youth in his local community inspired Jason Coleman (PsyD '19) to pursue a career as a Clinical Psychologist. With a service-oriented approach to his practice and a talent for developing personal connections with his clients, Jason is committed to making a difference.Learn More About PCOM: PCOM: https://www.pcom.edu/ Facebook: https://www.facebook.com/PCOMeducation/ Twitter: https://twitter.com/pcomeducation Instagram: https://instagram.com/pcomeducation/ YouTube: https://www.youtube.com/user/PCOMeduc...Linkedin: https://www.linkedin.com/edu/school?i...issuu: https://issuu.com/pcomeducation",
  "thumbnailUrl": "https://i.ytimg.com/vi/G7YoSr77w1A/hqdefault.jpg",
  "uploadDate": "2017-10-04",
  "duration": "PT1M13S",
  "embedUrl": "https://www.youtube.com/embed/G7YoSr77w1A",
  	"loc": "https://www.pcom.edu/admissions/student-stories/jason-coleman.html"
}, {
	"@context": "http://schema.org",
	"@type": "VideoObject",
	"name": "Doctor of Pharmacy (PharmD) Program | PCOM Georgia",
	"description": "Learn About Pharmacy (PharmD) at PCOM: http://bit.ly/2wecPx5 Kerry Ward (PharmD '18) talks about the faculty interaction that makes the School of Pharmacy at Georgia Campus – Philadelphia College of Osteopathic Medicine (PCOM Georgia) such a special place to be.The PCOM School of Pharmacy program prepares entry-level generalist pharmacists for careers with the right combination of skills, knowledge, attitudes and values to develop and grow in this rapidly evolving profession.Learn More About PCOM: PCOM: https://www.pcom.edu/ Facebook: https://www.facebook.com/PCOMeducation/ Twitter: https://twitter.com/pcomeducation Instagram: https://instagram.com/pcomeducation/ YouTube: https://www.youtube.com/user/PCOMeduc...Linkedin: https://www.linkedin.com/edu/school?i...issuu: https://issuu.com/pcomeducation",
	"thumbnailUrl": "https://i.ytimg.com/vi/FwdzexbTVDM/maxresdefault.jpg",
	"uploadDate": "2015-11-06",
	"duration": "PT0M31S",
	"embedUrl": "https://www.youtube.com/embed/FwdzexbTVDM",
	"loc": "https://www.pcom.edu/admissions/student-stories/kerry-ward.html"
}, {
	"@context": "http://schema.org",
	"@type": "VideoObject",
	"name": "Keya Meyers (MS/Biomed '18)",
	"description": "For Keya Meyers (MS/Biomed ’18), it’s important to know the biochemical and molecular aspects of basic science while also learning how these elements apply to medicine. The biomedical sciences program at GA-POM teaches Keya the skills she will need to succeed in medical school.The program promotes a learning environment that emphasizes critical reasoning in the basic sciences as it applies to medical, clinical, biotechnological and research applications. Learn how GA-PCOM helps students achieve their goals: http://www.pcom.edu/academics/program...",
	"thumbnailUrl": "https://i.ytimg.com/vi/nuhzFKqFZrk/hqdefault.jpg",
	"uploadDate": "2017-06-19",
	"duration": "PT1M5S",
	"embedUrl": "https://www.youtube.com/embed/nuhzFKqFZrk",
	"loc": "https://www.pcom.edu/admissions/student-stories/keya-meyers.html"
}, {
	"@context": "http://schema.org",
	"@type": "VideoObject",
	"name": "Kristine Kim (MS/Biomed ’18)",
	"description": "Kristine Kim’s (MS/Biomed ’18) work with vulnerable populations, a service- and research-based area of health care motivated her to pursue a degree in biomedical sciences. In her studies at Philadelphia College of Osteopathic Medicine, she is merging her public health background with science, a combination which will enable her to continue helping those in need.If your passion is the life sciences, particularly its practical application in health care or in research, a graduate degree in biomedical sciences will provide you with the skills and knowledge necessary to pursue various scientific careers and professional degrees. Learn how we will help you develop a solid knowledge base with an emphasis on developing strong academic and professional skills: http://www.pcom.edu/academics/program...",
	"thumbnailUrl": "https://i.ytimg.com/vi/O9L1FCoCgi0/maxresdefault.jpg",
	"uploadDate": "2017-02-28",
	"duration": "PT0M59S",
	"embedUrl": "https://www.youtube.com/embed/O9L1FCoCgi0",
	"loc": "https://www.pcom.edu/admissions/student-stories/kristine-kim.html"
}, {
	"@context": "http://schema.org",
	"@type": "VideoObject",
	"name": "Maia Campbell (EdS)",
	"description": "Maia Campbell's (EdS) personal philosophy is to advocate for each child she serves. Working as a school psychologist, she evaluates and analyzes the learning styles and profiles of her students to determine their individual learning needs for educational success.Learn More About PCOM: PCOM: https://www.pcom.edu/ Facebook: https://www.facebook.com/PCOMeducation/ Twitter: https://twitter.com/pcomeducation Instagram: https://instagram.com/pcomeducation/ YouTube: https://www.youtube.com/user/PCOMeduc...Linkedin: https://www.linkedin.com/edu/school?i...issuu: https://issuu.com/pcomeducation",
	"thumbnailUrl": "https://i.ytimg.com/vi/Uvuc--fbjkY/maxresdefault.jpg",
	"uploadDate": "2019-06-04",
	"duration": "PT1M12S",
	"embedUrl": "https://www.youtube.com/embed/Uvuc--fbjkY",
	"loc": "https://www.pcom.edu/admissions/student-stories/maia-campbell.html"
}, {
	"@context": "http://schema.org",
	"@type": "VideoObject",
	"name": "Clinical Psychology (PsyD) at PCOM",
	"description": "Mark D. Cassano, MS/Psy '12 (PsyD '17) describes how shared medical appointments are enhancing his psychology education at Philadelphia College of Osteopathic Medicine.",
	"thumbnailUrl": "https://i.ytimg.com/vi/jHVceD_V1JY/maxresdefault.jpg",
	"uploadDate": "2015-10-27",
	"duration": "PT0M31S",
	"embedUrl": "https://www.youtube.com/embed/jHVceD_V1JY",
	"loc": "https://www.pcom.edu/admissions/student-stories/mark-cassano.html"
}, {
	"@context": "http://schema.org",
	"@type": "VideoObject",
	"name": "Memu-lye Kamara (DO' 20)",
	"description": "Memu-lye Kamara (DO' 20) explains how a life-changing experience in a Ghanaian refugee camp opened her eyes to how many people have limited access to health care. The time in the camp, Kamara said, made a huge impact on her life and is one of the reasons she is now pursuing a degree in osteopathic medicine.One of the nation’s most respected osteopathic medical schools, Philadelphia College of Osteopathic Medicine brings a long, proud tradition—spanning more than a century—of training osteopathic physicians. Learn more: http://www.pcom.edu/academics/program...",
	"thumbnailUrl": "https://i.ytimg.com/vi/ObmyEZJp1-4/hqdefault.jpg",
	"uploadDate": "2017-02-28",
	"duration": "PT0M54S",
	"embedUrl": "https://www.youtube.com/embed/ObmyEZJp1-4",
	"loc": "https://www.pcom.edu/admissions/student-stories/memu-lye-kamara.html"
}, {
  "@context": "http://schema.org",
  "@type": "VideoObject",
  "name": "Michael Allen (MS/PA) | Student Stories | PCOM",
  "description": "Learn More About PCOM Georgia’s Physician Assistant Studies Program: https://bit.ly/3038v0k When his wife was studying to become a Physician Assistant, Michael Allen (MS/PA ‘20) joined her and her class on a medical mission trip that inspired him to pursue a healthcare career himself. Now part of PCOM Georgia’s Physician Assistant Studies program, Michael looks forward to clinical rotations with hands-on training in various specialties.Learn More About PCOM: PCOM: https://www.pcom.edu/ Facebook: https://www.facebook.com/PCOMeducation/ Twitter: https://twitter.com/pcomeducation Instagram: https://instagram.com/pcomeducation/ YouTube: https://www.youtube.com/user/PCOMeduc...Linkedin: https://www.linkedin.com/edu/school?i...issuu: https://issuu.com/pcomeducation",
  "thumbnailUrl": "https://i.ytimg.com/vi/XUkZl95NTXw/maxresdefault.jpg",
  "uploadDate": "2019-04-11",
  "duration": "PT1M1S",
  "embedUrl": "https://www.youtube.com/embed/XUkZl95NTXw",
	"loc": "https://www.pcom.edu/admissions/student-stories/michael-allen.html"
}, {
	"@context": "http://schema.org",
	"@type": "VideoObject",
	"name": "Nandi Rosier (PharmD '21)",
	"description": "With a passion for helping people, Nandi Rosier (PharmD ’21) wants to motivate her future patients to take an active role in their own healthcare. As she works toward her goals, Nandi draws support from her fellow classmates and GA-PCOM faculty members. Learn more about our Doctor of Pharmacy (PharmD) program: http://bit.ly/2nfoOGb",
	"thumbnailUrl": "https://i.ytimg.com/vi/3_p1epJ4Jj4/maxresdefault.jpg",
	"uploadDate": "2018-08-06",
	"duration": "PT0M56S",
	"embedUrl": "https://www.youtube.com/embed/3_p1epJ4Jj4",
	"loc": "https://www.pcom.edu/admissions/student-stories/nandi-rosier.html"
}, {
  "@context": "http://schema.org",
  "@type": "VideoObject",
  "name": "Natacha Rivera (MS/FM ‘18) | Student Stories | PCOM",
  "description": "Learn More About Forensic Medicine at PCOM: https://bit.ly/30arhTm Forensic medicine was a natural fit for Natacha Rivera (MS/FM ‘18). Through her work with The Victim Empowerment Program and The Innocence Project, she is determined to help make a difference in someone’s life.Created and overseen by a board-certified forensic pathologist, PCOM’s forensic medicine program provides students with the analytical and critical thinking skills needed to succeed within the field. Interested in a rewarding career in the field of forensic medicine?Learn More About PCOM: PCOM: https://www.pcom.edu/ Facebook: https://www.facebook.com/PCOMeducation/ Twitter: https://twitter.com/pcomeducation Instagram: https://instagram.com/pcomeducation/ YouTube: https://www.youtube.com/user/PCOMeduc...Linkedin: https://www.linkedin.com/edu/school?i...issuu: https://issuu.com/pcomeducation",
  "thumbnailUrl": "https://i.ytimg.com/vi/7rNBNC6Esgk/maxresdefault.jpg",
  "uploadDate": "2017-05-19",
  "duration": "PT1M14S",
  "embedUrl": "https://youtu.be/7rNBNC6Esgk",
  	"loc": "https://www.pcom.edu/admissions/student-stories/natacha-rivera.html"
  }, {
	"@context": "http://schema.org",
	"@type": "VideoObject",
	"name": "Nicole Pritchett (DO '21)",
	"description": "When she was in high school, Nicole Pritchett (DO '21) was in a car accident that left her in the hospital. During that vulnerable time, Nicole's doctor made her feel comfortable and supported, and inspired Nicole to become a doctor herself. Now, Nicole hopes to inspire young people to pursue healthcare careers by volunteering with the college's Opportunities Academy. Learn more about GA-PCOM's Doctor of Osteopathic Medicine (DO) program: https://bit.ly/2L77EnH",
	"thumbnailUrl": "https://i.ytimg.com/vi/sT-ICceVLP0/maxresdefault.jpg",
	"uploadDate": "2018-08-20",
	"duration": "PT1M0S",
	"embedUrl": "https://www.youtube.com/embed/sT-ICceVLP0",
	"loc": "https://www.pcom.edu/admissions/student-stories/nicole-pritchett.html"
}, {
	"@context": "http://schema.org",
	"@type": "VideoObject",
	"name": "Patrick Mullen (MS/MHC '18)",
	"description": "Although not his initial career choice, Patrick Mullen (MS/MHC '18) discovered a passion for counseling through his own personal journey and experiences. With the training he receives in the Mental Health Counseling program's addictions and offenders track, he hopes to make a positive impact in his community.The MS in Mental Health Counseling program at PCOM not only provides students with training to help those fighting addiction, but also training in cognitive behavioral therapy and counseling in medical settings. The program can be completed in two years by many full-time students. If you are interested in a rewarding career path which provides the opportunity to directly help others, learn more at:http://www.pcom.edu/academics/program...",
	"thumbnailUrl": "https://i.ytimg.com/vi/iOpHUDMoOEc/hqdefault.jpg",
	"uploadDate": "2017-05-24",
	"duration": "PT1M10S",
	"embedUrl": "https://www.youtube.com/embed/iOpHUDMoOEc",
	"loc": "https://www.pcom.edu/admissions/student-stories/patrick-mullen.html"
}, {
	"@context": "http://schema.org",
	"@type": "VideoObject",
	"name": "Clinical Psychology (PsyD) at Philadelphia College of Osteopathic Medicine",
	"description": "Rachel Gerofsky, MS/Psy '13 (PsyD '19) has found research and faculty mentoring to be distinctive components of the clinical PsyD program at Philadelphia College of Osteopathic Medicine.Learn more at http://www.pcom.edu/academics/program...",
	"thumbnailUrl": "https://i.ytimg.com/vi/mLYL0wzIByw/maxresdefault.jpg",
	"uploadDate": "2015-11-06",
	"duration": "PT0M32S",
	"embedUrl": "https://www.youtube.com/embed/mLYL0wzIByw",
	"loc": "https://www.pcom.edu/admissions/student-stories/rachel-gerofsky.html"
}, {
	"@context": "http://schema.org",
	"@type": "VideoObject",
	"name": "Samantha Miller (MS/PA '18)",
	"description": "While battling a serious illness, Samantha Miller (MS/PA '18) learned about the physician assistant (PA) studies profession—and was inspired to pursue a career in the field—by her PA. At PCOM, she now learns from faculty who, as experienced physician assistants, bring lectures to life and are preparing her for a rewarding career helping others, just as her PA helped her.Our Physician Assistant Studies program provides a comprehensive academic and clinical medical education to prepare students for their professional roles as PAs. Learn more: http://www.pcom.edu/academics/program...",
	"thumbnailUrl": "https://i.ytimg.com/vi/sl1i2xJpEnY/maxresdefault.jpg",
	"uploadDate": "2017-02-28",
	"duration": "PT0M59S",
	"embedUrl": "https://www.youtube.com/embed/sl1i2xJpEnY",
	"loc": "https://www.pcom.edu/admissions/student-stories/samantha-miller.html"
}, {
  "@context": "http://schema.org",
  "@type": "VideoObject",
  "name": "Siobhonn Job (MS/MHC) | Student Stories | PCOM",
  "description": "Learn More About Mental Health Counseling at PCOM: https://bit.ly/3056b8Z Working with underserved youth populations around the world speaks to Siobhonn Job's (MS/MHC) unwavering passion for helping others. With a personal focus on youth empowerment and advocacy, she hopes to inspire others to find their voices as a Mental Health Counselor.Learn More About PCOM: PCOM: https://www.pcom.edu/ Facebook: https://www.facebook.com/PCOMeducation/ Twitter: https://twitter.com/pcomeducation Instagram: https://instagram.com/pcomeducation/ YouTube: https://www.youtube.com/user/PCOMeduc...Linkedin: https://www.linkedin.com/edu/school?i...issuu: https://issuu.com/pcomeducation",
  "thumbnailUrl": "https://i.ytimg.com/vi/Palh1ZjWYIs/maxresdefault.jpg",
  "uploadDate": "2019-06-04",
  "duration": "PT1M12S",
  "embedUrl": "https://www.youtube.com/embed/Palh1ZjWYIs",
	"loc": "https://www.pcom.edu/admissions/student-stories/siobhonn-job.html"
}, {
  "@context": "http://schema.org",
  "@type": "VideoObject",
  "name": "Zachary Murphy (MS/PA) | Student Stories | PCOM",
  "description": "Learn More About the Physician Assistant (PA) Studies Program at PCOM: https://bit.ly/30cEVFv Teaching others anatomy and science through his Youtube channel, Ninja Nerd Science, started as a passion project for Zachary Murphy (MS/PA). Now, as he studies to become a Physician Assistant, he hopes to provide his future patients with a more comprehensive understanding of their symptoms and diagnoses.Learn More About PCOM: PCOM: https://www.pcom.edu/ Facebook: https://www.facebook.com/PCOMeducation/ Twitter: https://twitter.com/pcomeducation Instagram: https://instagram.com/pcomeducation/ YouTube: https://www.youtube.com/user/PCOMeduc...Linkedin: https://www.linkedin.com/edu/school?i...issuu: https://issuu.com/pcomeducation",
  "thumbnailUrl": "https://i.ytimg.com/vi/_zhkVsjmrTg/hqdefault.jpg",
  "uploadDate": "2019-06-07",
  "duration": "PT1M25S",
  "embedUrl": "https://www.youtube.com/embed/_zhkVsjmrTg",
	"loc": "https://www.pcom.edu/admissions/student-stories/zachary-murphy.html"
}, {
	"@context": "http://schema.org",
	"@type": "VideoObject",
	"name": "Zoe Beausoleil (MS/Biomed)",
	"description": "Zoe Beausoleil (MS/Biomed) discovered a need for more compassionate care when she experienced a life-changing injury as a dancer. Now, as a student in the biomedical sciences program, she is working towards becoming a healthcare provider that focuses on the person, not just their symptoms.Learn More About PCOM: PCOM: https://www.pcom.edu/ Facebook: https://www.facebook.com/PCOMeducation/ Twitter: https://twitter.com/pcomeducation Instagram: https://instagram.com/pcomeducation/ YouTube: https://www.youtube.com/user/PCOMeduc...Linkedin: https://www.linkedin.com/edu/school?i...issuu: https://issuu.com/pcomeducation",
	"thumbnailUrl": "https://i.ytimg.com/vi/fJnnqNVQ-bQ/maxresdefault.jpg",
	"uploadDate": "2019-06-04",
	"duration": "PT1M9S",
	"embedUrl": "https://www.youtube.com/embed/fJnnqNVQ-bQ",
	"loc": "https://www.pcom.edu/admissions/student-stories/zoe-beausoleil.html"
}, {
	"@context": "http://schema.org",
	"@type": "VideoObject",
	"name": "Public Health Management and Administration Program | PCOM",
	"description": "Learn more about the PHMA programs at PCOM:  https://bit.ly/38X9Wm9   PCOM and partner organization PHMC discuss the innovative training program designed to enhance skills and knowledge in the evolving public health landscape.   Learn More About PCOM:   PCOM:  https://www.pcom.edu/  Facebook:  https://www.facebook.com/PCOMeducation/  Twitter:  https://twitter.com/pcomeducation  Instagram:  https://instagram.com/pcomeducation/  YouTube:  https://www.youtube.com/user/PCOMeduc...      Linkedin:  https://www.linkedin.com/school/phila...      issuu:  https://issuu.com/pcomeducation",
	"thumbnailUrl": "https://i.ytimg.com/vi/XKe_y5OmSlo/maxresdefault.jpg",
	"uploadDate": "2020-02-21",
	"duration": "PT1M4S",
	"embedUrl": "https://www.youtube.com/embed/XKe_y5OmSlo",
  "loc": "https://www.pcom.edu/academics/programs-and-degrees/public-health-management-and-administration/"
}, {
	"@context": "http://schema.org",
	"@type": "VideoObject",
	"name": "What is Motivational Interviewing in Counseling? | PCOM",
	"description": "Learn more about Mental Health Counseling at PCOM: https://bit.ly/2x5RnLl Interested in learning what motivational interviewing is? PCOM Department of Psychology's Scott Glassman, PsyD '13 explains motivational interviewing and how it can be utilized to help produce productive patient interactions.Learn more about Dr. Glassman and his work here: https://bit.ly/2x6txyZLearn More About PCOM: PCOM: https://www.pcom.edu/ Facebook: https://www.facebook.com/PCOMeducation/ Twitter: https://twitter.com/pcomeducation Instagram: https://instagram.com/pcomeducation/ YouTube: https://www.youtube.com/user/PCOMeduc...Linkedin: https://www.linkedin.com/edu/school?i...issuu: https://issuu.com/pcomeducation",
	"thumbnailUrl": "https://i.ytimg.com/vi/om0xWFIWieU/maxresdefault.jpg",
	"uploadDate": "2017-04-03",
	"duration": "PT1M25S",
	"embedUrl": "https://www.youtube.com/embed/om0xWFIWieU",
	"loc": "https://www.pcom.edu/campuses/philadelphia-campus/news-and-events/pcom-news/motivational-interviewing-and-primary-care.html"
}, {
  "@context": "http://schema.org",
  "@type": "VideoObject",
  "name": "Nasheed Burgess (MS/Biomed) | Biomedical Sciences at PCOM Georgia",
  "description": "Learn more about the Master of Science in Biomedical Sciences degree (MS) program at PCOM and PCOM Georgia: http://bit.ly/2ZEQtlj While serving in the Army, Nasheed Burgess (MS/Biomed '20) developed a passion for health care as he helped soldiers with health and wellness issues. Nasheed shares how PCOM Georgia's Biomedical Sciences program is preparing him to pursue a full-time career in medicine.Learn More About PCOM Georgia:PCOM Georgia: https://www.pcom.edu/georgiaFacebook: https://www.facebook.com/PCOMGeorgia/Twitter: https://twitter.com/pcomgeorgiaInstagram: https://instagram.com/pcomgeorgia/YouTube: https://www.youtube.com/user/PCOMeduc...Linkedin: https://www.linkedin.com/company/1509...issuu: https://issuu.com/pcomeducation",
  "thumbnailUrl": "https://i.ytimg.com/vi/4XwQiViPKeY/maxresdefault.jpg",
  "uploadDate": "2019-06-26",
  "duration": "PT1M7S",
  "embedUrl": "https://www.youtube.com/embed/4XwQiViPKeY",
  "loc": "https://www.pcom.edu/admissions/student-stories/nasheed-burgess.html"
	}, {
		"@context": "http://schema.org",
		"@type": "VideoObject",
		"name": "Medical Simulation Center | PCOM Georgia",
		"description": "Learn More About PCOM Georgia's Simulation Center: https://bit.ly/2IaYyYI Interested in learning more about what a medical simulation center is? In PCOM Georgia's simulation center, student doctors learn to react to high-pressure challenges they may encounter in the field. With high fidelity mannequins, laparoscopic trainers, virtual reality simulators, a fully equipped operating room, mock exam rooms and more, students receive hands-on training and clinical experience before treating actual patients.Learn More About PCOM: PCOM: https://www.pcom.edu/ Facebook: https://www.facebook.com/PCOMeducation/ Twitter: https://twitter.com/pcomeducation Instagram: https://instagram.com/pcomeducation/ YouTube: https://www.youtube.com/user/PCOMeduc...Linkedin: https://www.linkedin.com/edu/school?i...issuu: https://issuu.com/pcomeducation",
		"thumbnailUrl": "https://i.ytimg.com/vi/OQyPhGgxMgw/hqdefault.jpg",
		"uploadDate": "2017-11-13",
		"duration": "PT1M26S",
		"embedUrl": "https://www.youtube.com/embed/OQyPhGgxMgw",
		"loc": "https://www.pcom.edu/academics/clinical-learning-and-assessment/simulation-center/"
	}, {
		"@context": "http://schema.org",
		"@type": "VideoObject",
		"name": "Facing Addiction, Interview with Bradley Miller, DO (PCOM Digest Magazine)",
		"description": "Bradley Miller, DO '98, FAAFP, on addiction in rural communities and an obligation to teach future physicians:Learn more: Digest Magazine, 'Facing Addiction' www.pcom.edu/about/departments/marketing-and-communications/digest-magazine/",
		"thumbnailUrl": "https://i.ytimg.com/vi/uKCi_NIQcIQ/maxresdefault.jpg",
		"uploadDate": "2018-06-06",
		"duration": "PT2M21S",
		"embedUrl": "https://www.youtube.com/embed/uKCi_NIQcIQ",
		"loc":"https://www.pcom.edu/about/departments/marketing-and-communications/digest-magazine/digest-featured-stories/facing-addiction-may-2018.html"
}, {
	"@context": "http://schema.org",
	"@type": "VideoObject",
	"name": "Clinical Psychology Substance Abuse Education and Research | PCOM",
	"description": "Learn More About PCOM's Research into Substance Abuse: https://bit.ly/3067qto Interested in learning more about substance abuse research and education? David Festinger (PhD) of PCOM’s Department of Clinical Psychology is conducting a study with the Philadelphia Treatment Court to examine linking drug court clients to preventive health exams.Learn More About PCOM: PCOM: https://www.pcom.edu/ Facebook: https://www.facebook.com/PCOMeducation/ Twitter: https://twitter.com/pcomeducation Instagram: https://instagram.com/pcomeducation/ YouTube: https://www.youtube.com/user/PCOMeduc...Linkedin: https://www.linkedin.com/edu/school?i...issuu: https://issuu.com/pcomeducation",
	"thumbnailUrl": "https://i.ytimg.com/vi/ZalHbcAJX0U/maxresdefault.jpg",
	"uploadDate": "2017-07-05",
	"duration": "PT1M38S",
	"embedUrl": "https://www.youtube.com/embed/ZalHbcAJX0U",
	"loc": "https://www.pcom.edu/academics/faculty/david_festinger.html"
}, {
  "@context": "http://schema.org",
  "@type": "VideoObject",
  "name": "Multiple Myeloma Research | PCOM School of Pharmacy",
  "description": "Learn more about Dr. Eric Wang and his multiple myeloma research at PCOM: https://bit.ly/2m7LxHs Watch Xinyu (Eric) Wang, PhD, associate professor in the Department of Pharmaceutical Sciences at PCOM, discuss his research in multiple myeloma research that led to an AACP New Investigator Award.Are you looking at Doctor of Pharmacy degree (PharmD) programs within the state of Georgia? At PCOM you will be able to learn and practice flow cytometry, biopharmaceutics, pharmacokinetics, pharmaceutical compounding and pharmaceutical calculations.Learn More About PCOM: PCOM: https://www.pcom.edu/ Facebook: https://www.facebook.com/PCOMeducation/ Twitter: https://twitter.com/pcomeducation Instagram: https://instagram.com/pcomeducation/ YouTube: https://www.youtube.com/user/PCOMeduc...Linkedin: https://www.linkedin.com/edu/school?i...issuu: https://issuu.com/pcomeducation",
  "thumbnailUrl": "https://i.ytimg.com/vi/urmY50S4oWo/maxresdefault.jpg",
  "uploadDate": "2016-04-18",
  "duration": "PT1M50S",
  "embedUrl": "https://www.youtube.com/embed/urmY50S4oWo",
  "loc": "https://www.pcom.edu/academics/faculty/xinyuwa.html"
}, {
  "@context": "http://schema.org",
  "@type": "VideoObject",
  "name": "Pain Management and Osteopathic Manipulative Therapy | PCOM",
  "description": "Learn more about osteopathic manipulative therapy and chronic pain management techniques: https://bit.ly/2nwz4xc Watch osteopathic physician Bradley Miller, DO, talk about opioid addiction in rural communities and his obligation to teach residents and medical students osteopathic manipulative therapy an alternative pain management technique without medication.Are you interested in pursuing a medical practice that teaches patients non pharmacological pain management techniques? At PCOM you will learn osteopathic manipulative therapy and other osteopathic pain management techniques to help patients with their chronic pain.Learn More About PCOM: PCOM: https://www.pcom.edu/ Facebook: https://www.facebook.com/PCOMeducation/ Twitter: https://twitter.com/pcomeducation Instagram: https://instagram.com/pcomeducation/ YouTube: https://www.youtube.com/user/PCOMeduc...Linkedin: https://www.linkedin.com/edu/school?i...issuu: https://issuu.com/pcomeducation",
  "thumbnailUrl": "https://i.ytimg.com/vi/uKCi_NIQcIQ/maxresdefault.jpg",
  "uploadDate": "2018-06-06",
  "duration": "PT2M21S",
  "embedUrl": "https://www.youtube.com/embed/uKCi_NIQcIQ",
  "loc": "https://www.pcom.edu/about/departments/marketing-and-communications/digest-magazine/digest-featured-stories/facing-addiction-may-2018.html"
}, {
  "@context": "http://schema.org",
  "@type": "VideoObject",
  "name": "Dr. Kendorski on Behavior and Neurodevelopmental Disorders | PCOM",
  "description": "Learn more about Dr. Kendorski and her research into educational psychology: https://bit.ly/2IJGODT Watch as Jessica Kendorsky, PhD, NCSP, BCBA-D, and associate professor at PCOM’s Department of Psychology talks about her research into childhood neurodevelopmental and behavioral disorders.Are you looking to obtain a degree in school psychology and looking for programs that research developmental psychology? At PCOM you will learn ways to treat neurodevelopmental disorders by neutralizing triggers and supporting skill development to improve attention and memory through techniques including mindfulness and meditation.Learn More About PCOM: PCOM: https://www.pcom.edu/ Facebook: https://www.facebook.com/PCOMeducation/ Twitter: https://twitter.com/pcomeducation Instagram: https://instagram.com/pcomeducation/ YouTube: https://www.youtube.com/user/PCOMeduc...Linkedin: https://www.linkedin.com/edu/school?i...issuu: https://issuu.com/pcomeducation",
  "thumbnailUrl": "https://i.ytimg.com/vi/Jid0HbAZ8nw/hqdefault.jpg",
  "uploadDate": "2016-04-04",
  "duration": "PT2M5S",
  "embedUrl": "https://www.youtube.com/embed/Jid0HbAZ8nw",
  "loc": "https://www.pcom.edu/academics/faculty/jessicagl.html"
}, {
  "@context": "http://schema.org",
  "@type": "VideoObject",
  "name": "Transhealth Advocate Lectures on Transgender Health and Patient Care Services| PCOM",
  "description": "Learn more about how PCOM is advocating for transgender health and patient care services: https://bit.ly/2NJLblc Transgender health advocate Anne Koch, DMD, addressed the PCOM community during the College's inaugural annual lecture held in honor of LGBT History Month. The event was hosted by the Office of Diversity and Community Relations and PCOM’s LGBTQIA Council.According to Marcine Pickron-Davis, PhD, chief diversity and community relations officer, PCOM’s goal for the lecture series is to show students that diversity in healthcare is not just about gender or race and that not harboring assumptions about a patient’s sexual orientation or identification is important in achieving cultural competence.PCOM recognizes the importance of diversity and inclusion in enriching the experience of our students, promoting critical thinking and developing future community leaders. Visit pcom.edu to learn more about our commitment to diversity and inclusion: https://bit.ly/2r38ZrBLearn more about PCOM: PCOM: https://www.pcom.edu/ Facebook: https://www.facebook.com/PCOMeducation/ Twitter: https://twitter.com/pcomeducation Instagram: https://instagram.com/pcomeducation/ YouTube: https://www.youtube.com/user/PCOMeduc...Linkedin: https://www.linkedin.com/edu/school?i...issuu: https://issuu.com/pcomeducation",
  "thumbnailUrl": "https://i.ytimg.com/vi/PWviCFk6VXg/maxresdefault.jpg",
  "uploadDate": "2017-10-30",
  "duration": "PT2M0S",
  "embedUrl": "https://www.youtube.com/embed/PWviCFk6VXg",
  "loc": "https://www.pcom.edu/campuses/philadelphia-campus/news-and-events/pcom-news/pcom-hosts-trans-health-advocate.html"
}, {
  "@context": "http://schema.org",
  "@type": "VideoObject",
  "name": "Researching Myo/Nog Cells to Treat Retinal Degeneration and Find a Cure For Blindness | PCOM",
  "description": "Learn how PCOM researchers are studying Myo/Nog cells to find a cure for blindness: https://bit.ly/2Km7Py4 Learn how Arturo Bravo-Nuevo, PhD, associate professor of neuroscience, is working with Myo/Nog cells, discovered at PCOM, to develop effective treatments for retinal degeneration and perhaps find a cure for blindness.At PCOM, a team of investigators is developing approaches to preventing vision loss by deciphering mechanisms leading to dysfunction and developing approaches to maintaining the clarity of the lens and function of the retina. Visit pcom.edu to learn more about our innovative research: https://bit.ly/32YeSTVLearn more about PCOM: PCOM: https://www.pcom.edu/ Facebook: https://www.facebook.com/PCOMeducation/ Twitter: https://twitter.com/pcomeducation Instagram: https://instagram.com/pcomeducation/ YouTube: https://www.youtube.com/user/PCOMeduc...Linkedin: https://www.linkedin.com/edu/school?i...issuu: https://issuu.com/pcomeducation",
  "thumbnailUrl": "https://i.ytimg.com/vi/bXNIlW_0MgA/maxresdefault.jpg",
  "uploadDate": "2018-04-03",
  "duration": "PT0M57S",
  "embedUrl": "https://www.youtube.com/embed/bXNIlW_0MgA",
  "loc": "https://www.pcom.edu/academics/faculty/arturo-nuevo.html"
}, {
  "@context": "http://schema.org",
  "@type": "VideoObject",
  "name": "Student Wellness Week Addresses Mental Health on College Campuses | PCOM",
  "description": "Learn more about how PCOM addresses the mental health of college students on their campuses: http://bit.ly/2pihkq GAs part of PCOM’s ongoing efforts to help break the stigma surrounding mental health issues, the college hosted a series of events and activities designed to promote health and wellness among the student body. By emphasizing the importance of sustaining and modeling personal health and well-being, PCOM is working to develop today’s medical students into tomorrow’s healthcare leaders.In addition to events such as Student Wellness Week, PCOM offers other mental health resources for students including counseling services, a meditation room, student relaxation room and more. Learn how PCOM helps students manage stress and balance competing priorities: https://bit.ly/2qtHCGXLearn more about PCOM: PCOM: https://www.pcom.edu/ Facebook: https://www.facebook.com/PCOMeducation/ Twitter: https://twitter.com/pcomeducation Instagram: https://instagram.com/pcomeducation/ YouTube: https://www.youtube.com/user/PCOMeduc...Linkedin: https://www.linkedin.com/edu/school?i...issuu: https://issuu.com/pcomeducation",
  "thumbnailUrl": "https://i.ytimg.com/vi/ExEdQY35jOg/maxresdefault.jpg",
  "uploadDate": "2017-03-23",
  "duration": "PT2M5S",
  "embedUrl": "https://www.youtube.com/embed/ExEdQY35jOg",
  "loc": "https://www.pcom.edu/campuses/philadelphia-campus/news-and-events/pcom-news/pcom-highlights-student-mental-health.html"
}, {
"@context": "http://schema.org",
"@type": "VideoObject",
"name": "Physician Assistant Studies at Philadelphia College of Osteopathic Medicine",
"description": "In his first year, Alex Tabone (MS/PA '17) is gaining hands-on experience as he pursues a career serving patients in the Physician Assistant Studies program at Philadelphia College of Osteopathic Medicine.   PCOM's PA program provides a comprehensive academic and clinical medical education to prepare students for their professional roles as Physician Assistants. Learn more:  http://www.pcom.edu/academics/program...",
"thumbnailUrl": "https://i.ytimg.com/vi/PQmCwiogpio/maxresdefault.jpg",
"uploadDate": "2015-10-27",
"duration": "PT0M31S",
"embedUrl": "https://www.youtube.com/embed/PQmCwiogpio",
"loc":"https://www.pcom.edu/admissions/student-stories/alex-tabone.html"
}, {
"@context": "http://schema.org",
"@type": "VideoObject",
"name": "Forensic Medicine Program | PCOM",
"description": "Learn More About the Forensic Medicine Program at PCOM:  https://bit.ly/31YJKnY   Sara M. Sabatino (MS/FM '16) was influenced by a family tradition in medicine, which helped lead her to finding a home in the forensic medicine program at PCOM.   PCOM offers four degree programs, including a masters, and a pathway program for students interested in pursuing careers in forensic medicine.   Learn More About PCOM:   PCOM:  https://www.pcom.edu/  Facebook:  https://www.facebook.com/PCOMeducation/  Twitter:  https://twitter.com/pcomeducation  Instagram:  https://instagram.com/pcomeducation/  YouTube:  https://www.youtube.com/user/PCOMeduc...  Linkedin:  https://www.linkedin.com/edu/school?i...  Issuu:  https://issuu.com/pcomeducation",
"thumbnailUrl": "https://i.ytimg.com/vi/vB_20BlHST8/maxresdefault.jpg",
"uploadDate": "2015-11-06",
"duration": "PT0M32S",
"embedUrl": "https://www.youtube.com/embed/vB_20BlHST8",
"loc": "https://www.pcom.edu/admissions/student-stories/sara-sabatino.html"
}, {
	"@context": "http://schema.org",
	"@type": "VideoObject",
	"name": "Learn about the Coronavirus (COVID-19) with Valerie Cadet, PhD PCOM Georgia",
	"description": "With confirmed cases in Georgia and other parts of the United States, it's important to understand what coronavirus (COVID-19) is and how we can prevent the disease from spreading. In our latest Faculty Focus video, PCOM Georgia's Valerie Cadet, PhD, associate professor of pathology, microbiology, immunology and forensic medicine, explores these topics.   Learn more about Dr. Cadet's background and research in infectious diseases:  https://bit.ly/2woXkG3   Learn more about PCOM Georgia:   PCOM:  https://www.pcom.edu/georgia  Facebook:  https://www.facebook.com/PCOMGeorgia/  Twitter:  https://twitter.com/pcomgeorgia  Instagram:  https://instagram.com/pcomgeorgia/  YouTube:  https://www.youtube.com/user/PCOMeduc...  Linkedin:  https://www.linkedin.com/school/pcom-...  issuu:  https://issuu.com/pcomeducation",
	"thumbnailUrl": "https://i.ytimg.com/vi/_co_OCKWArA/maxresdefault.jpg",
	"uploadDate": "2020-03-03",
	"duration": "PT2M12S",
	"embedUrl": "https://www.youtube.com/embed/_co_OCKWArA",
"loc":"https://www.pcom.edu/academics/faculty/valeriecad.html"
}
]
